<?xml version="1.0" encoding="UTF-8" standalone="no"?>
<svg width="80px" height="62px" viewBox="0 0 80 62" version="1.1" xmlns="http://www.w3.org/2000/svg" xmlns:xlink="http://www.w3.org/1999/xlink">
    <!-- Generator: Sketch 46.2 (44496) - http://www.bohemiancoding.com/sketch -->
    <title>Service ion</title>
    <desc>Created with Sketch.</desc>
    <defs></defs>
    <g id="Web-Designs" stroke="none" stroke-width="1" fill="none" fill-rule="evenodd">
        <g id="Index-Desktop-HD" transform="translate(-797.000000, -3443.000000)">
            <g id="items-/-Service-item-Copy-5" transform="translate(711.000000, 3434.000000)">
                <g id="icon/why-time" transform="translate(86.000000, 0.000000)">
                    <g id="network" transform="translate(0.000000, 9.000000)">
                        <path d="M13.7578168,15.9878995 C0.948148148,15.9878995 2.36849903,31.5486533 2.42697856,42.8250201 C2.42916179,43.2509196 2.65247563,43.6347588 3.01769981,43.8547186 C4.43711501,44.7094774 8.3354386,46.7079648 13.7578168,46.7079648 C19.1801949,46.7079648 23.0785185,44.7094774 24.4979337,43.8547186 C24.8630019,43.6347588 25.0864717,43.2509196 25.088655,42.8250201 C25.1471345,31.5486533 26.5674854,15.9878995 13.7578168,15.9878995 Z" id="Shape" fill="#694B4B" fill-rule="nonzero"></path>
                        <path d="M12.9325536,16.0199899 C1.01910331,16.687191 2.36990253,31.7996131 2.42697856,42.8250201 C2.42916179,43.2509196 2.65247563,43.6349146 3.01769981,43.8547186 C4.43711501,44.7094774 8.3354386,46.7079648 13.7578168,46.7079648 L16.9950877,24.0720452" id="Shape" fill="#5A4146" fill-rule="nonzero"></path>
                        <path d="M13.7578168,15.9878995 C6.47423002,15.9878995 5.96849903,24.7794372 5.96849903,24.7794372 C10.1667057,24.0720452 12.7463548,25.8404472 16.9950877,24.0720452 L13.7578168,46.7079648 C19.1803509,46.7079648 23.0785185,44.7094774 24.4979337,43.8547186 C24.8630019,43.6347588 25.0864717,43.2509196 25.088655,42.8250201 C25.1471345,31.5486533 26.5674854,15.9878995 13.7578168,15.9878995 Z" id="Shape" fill="#694B4B" fill-rule="nonzero"></path>
                        <path d="M25.088655,42.8250201 C25.1388694,33.1354171 26.1860429,20.2914472 18.3544639,16.8661809 C18.2178558,17.5749749 17.9703704,19.5538342 18.6134893,20.8382312 C20.2320468,24.0720452 21.8507602,24.0720452 23.4691618,26.4972111 C25.0877193,35.3898492 20.3766082,44.8283367 18.8118519,46.1133568 L18.8118519,46.1133568 C21.5842495,45.4547236 23.5716179,44.412407 24.4979337,43.8547186 C24.8630019,43.6349146 25.0864717,43.2509196 25.088655,42.8250201 Z" id="Shape" fill="#785550" fill-rule="nonzero"></path>
                        <path d="M26.0216764,45.277603 L18.8003119,42.272005 C18.197271,42.0210452 17.8042885,41.4323568 17.8042885,40.7794874 L17.8042885,38.8258643 L9.71150097,38.8258643 L9.71150097,40.7794874 C9.71150097,41.4323568 9.31851852,42.0210452 8.71547758,42.272005 L1.49411306,45.277603 C0.589317739,45.6542764 0,46.5373869 0,47.5164573 L0,50.7502714 C0,51.643196 0.724678363,52.3671005 1.6185575,52.3671005 L25.897076,52.3671005 C26.7909552,52.3671005 27.5156335,51.643196 27.5156335,50.7502714 L27.5156335,47.5164573 C27.5157895,46.5373869 26.9264717,45.6542764 26.0216764,45.277603 Z" id="Shape" fill="#E6AF78" fill-rule="nonzero"></path>
                        <path d="M26.0216764,45.277603 L19.0395322,42.371392 L13.7578168,44.6485678 L8.47610136,42.3715477 L1.49411306,45.2777588 C0.589317739,45.6542764 0,46.5373869 0,47.5164573 L0,50.7502714 C0,51.643196 0.724678363,52.3671005 1.6185575,52.3671005 L25.897076,52.3671005 C26.7909552,52.3671005 27.5156335,51.643196 27.5156335,50.7502714 L27.5156335,47.5164573 C27.5157895,46.5373869 26.9264717,45.6542764 26.0216764,45.277603 Z" id="Shape" fill="#EFF2FA" fill-rule="nonzero"></path>
                        <path d="M17.8042885,38.8258643 L9.71150097,38.8258643 L9.71150097,40.7794874 C9.71150097,41.4323568 9.31851852,42.0210452 8.71547758,42.272005 L7.58768031,42.7415226 C16.2184795,44.9398744 17.8042885,38.8258643 17.8042885,38.8258643 Z" id="Shape" fill="#D29B6E" fill-rule="nonzero"></path>
                        <g id="Group" transform="translate(0.000000, 40.969849)" fill-rule="nonzero" fill="#E4EAF6">
                            <path d="M3.94448343,7.43517085 L0.696140351,4.85407035 C0.260896686,5.29866332 0,5.89996985 0,6.54660804 L0,9.78042211 C0,10.6733467 0.724678363,11.3972513 1.6185575,11.3972513 L4.85582846,11.3972513 L4.85582846,9.32913065 C4.85567251,8.59229648 4.52054581,7.89549749 3.94448343,7.43517085 Z" id="Shape"></path>
                            <path d="M27.5157895,9.78026633 L27.5157895,6.54645226 C27.5157895,5.90479899 27.2592593,5.30769849 26.8300975,4.8640402 L23.5711501,7.43501508 C22.9952437,7.89518593 22.659961,8.59198492 22.659961,9.3288191 L22.659961,11.3967839 L25.897232,11.3967839 C26.7911111,11.3970955 27.5157895,10.673191 27.5157895,9.78026633 Z" id="Shape"></path>
                            <path d="M13.8792982,9.78026633 L13.6364912,9.78026633 C13.2566082,9.78026633 12.948616,9.47260302 12.948616,9.09312563 L12.948616,3.68058794 L14.5671735,3.68058794 L14.5671735,9.09296985 C14.5671735,9.47260302 14.2591813,9.78026633 13.8792982,9.78026633 Z" id="Shape"></path>
                            <path d="M13.7578168,3.67887437 L9.12592593,0.208743719 C8.82853801,-0.0140201005 8.40499025,0.0584170854 8.19883041,0.367326633 L7.28358674,1.73864824 L10.1233528,5.71007538 C10.3391813,6.01197487 10.7646004,6.07101508 11.0546589,5.83921608 L13.7578168,3.67887437 Z" id="Shape"></path>
                            <path d="M13.7578168,3.67887437 L18.3897076,0.208743719 C18.6870955,-0.0140201005 19.1106433,0.0584170854 19.3168031,0.367326633 L20.2320468,1.73864824 L17.3922807,5.71007538 C17.1764522,6.01197487 16.7510331,6.07101508 16.4609747,5.83921608 L13.7578168,3.67887437 Z" id="Shape"></path>
                        </g>
                        <path d="M17.8042885,23.2638643 C13.7578168,27.3058593 5.81676413,24.0720452 5.81676413,30.5393618 L6.31922027,35.3032362 C6.41621832,36.3689196 7.03469786,37.3176131 7.97083821,37.8372915 L12.5787135,40.394402 C13.3119688,40.8012965 14.2035088,40.8012965 14.9367641,40.394402 L19.5446394,37.8372915 C20.4810916,37.3176131 21.0994152,36.3687638 21.1962573,35.3032362 L21.7763743,29.6453467 C21.8176998,29.2431256 21.8264327,28.8385678 21.8128655,28.4351005 C21.5103314,26.3772613 18.6134893,24.8805377 17.8042885,23.2638643 Z" id="Shape" fill="#F0C087" fill-rule="nonzero"></path>
                        <path d="M5.81676413,30.5393618 L6.31922027,35.3032362 C6.41621832,36.3689196 7.03469786,37.3176131 7.97083821,37.8372915 L12.5787135,40.394402 C13.0875634,40.6768291 13.6711111,40.7498894 14.2265887,40.6403769 L14.2265887,40.6403769 C14.2265887,40.6403769 11.9034698,39.9370352 10.5207018,36.1981859 C10.097154,35.0528995 9.50908382,28.9896734 10.0149708,28.2486332 C11.0148928,26.784 16.5904094,26.631804 18.2378168,23.9145528 C18.1564133,23.8137638 18.0812476,23.7126633 18.0126316,23.6115628 C18.0071735,23.6034623 18.0004678,23.595206 17.9948538,23.5869497 C17.9232749,23.4794623 17.8584016,23.3716633 17.8041326,23.263397 C13.7578168,27.3058593 5.81676413,24.0720452 5.81676413,30.5393618 Z" id="Shape" fill="#E6AF78" fill-rule="nonzero"></path>
                        <path d="M19.665653,50.7501156 L17.5614815,50.7501156 C16.8017154,50.7501156 16.185731,51.3654422 16.185731,52.124397 L16.185731,52.3669447 L21.0414035,52.3669447 L21.0414035,52.124397 C21.0414035,51.3652864 20.4254191,50.7501156 19.665653,50.7501156 Z" id="Shape" fill="#E4EAF6" fill-rule="nonzero"></path>
                        <polygon id="Shape" fill="#E6AF78" fill-rule="nonzero" points="69.0495127 41.5188141 69.0495127 37.078804 57.6198051 37.078804 57.6198051 41.5188141 63.3345809 46.5933116"></polygon>
                        <path d="M77.885848,43.5958141 L70.028538,41.7490553 C69.9098635,41.7211709 69.8007018,41.6738141 69.6987135,41.6164874 L63.3345809,45.3249598 L57.2187135,41.4371859 C57.0602729,41.5861106 56.8639376,41.6967136 56.6407797,41.7492111 L48.7834698,43.5959698 C47.6360234,43.8656231 46.8252632,44.8883116 46.8252632,46.0658442 L46.8252632,51.0336332 C46.8252632,51.7341709 47.3938402,52.3022965 48.0952827,52.3022965 L78.574347,52.3022965 C79.2756335,52.3022965 79.8443665,51.7343266 79.8443665,51.0336332 L79.8443665,46.0658442 C79.8440546,44.8881558 79.0331384,43.8654673 77.885848,43.5958141 Z" id="Shape" fill="#EFF2FA" fill-rule="nonzero"></path>
                        <path d="M57.6198051,37.078804 L57.6198051,41.7635427 C64.8190253,44.3544573 69.0495127,37.8698492 69.0495127,37.8698492 L69.0495127,37.078804 L57.6198051,37.078804 L57.6198051,37.078804 Z" id="Shape" fill="#D29B6E" fill-rule="nonzero"></path>
                        <path d="M55.079922,22.489799 L55.6333723,34.6503668 C55.6851462,35.7864623 56.2426511,36.8398392 57.1533723,37.5221508 L59.7788694,39.4891709 C60.4383626,39.9833015 61.2405458,40.2503065 62.0647173,40.2503065 L64.6046004,40.2503065 C65.4289279,40.2503065 66.2311111,39.9831457 66.8904483,39.4891709 L69.5159454,37.5221508 C70.4266667,36.8398392 70.9843275,35.7863065 71.0359454,34.6503668 L71.5893957,22.489799 L55.079922,22.489799 L55.079922,22.489799 Z" id="Shape" fill="#F0C087" fill-rule="nonzero"></path>
                        <path d="M61.4297076,25.0269698 C63.9695906,25.0269698 67.7794932,24.392794 68.6831969,22.489799 L55.079922,22.489799 L55.6332164,34.6503668 C55.6849903,35.7864623 56.2424951,36.8398392 57.1532164,37.5221508 L59.7787135,39.4891709 C60.4382066,39.9833015 61.2403899,40.2503065 62.0645614,40.2503065 L63.3345809,40.2503065 C62.0645614,40.2503065 59.5246784,37.7131357 59.5246784,34.5414774 L59.5246784,26.929809 C59.5246784,26.2956332 60.1596881,25.0269698 61.4297076,25.0269698 Z" id="Shape" fill="#E6AF78" fill-rule="nonzero"></path>
                        <path d="M75.1823782,48.1853719 L79.2969981,44.4931005 C79.6417934,44.9292814 79.8440546,45.4779347 79.8440546,46.0655327 L79.8440546,51.0333216 C79.8440546,51.7338593 79.2754776,52.3019849 78.5740351,52.3019849 L74.1292788,52.3019849 L74.1292788,50.544799 C74.1292788,49.6447085 74.5119688,48.7869899 75.1823782,48.1853719 Z" id="Shape" fill="#E4EAF6" fill-rule="nonzero"></path>
                        <polygon id="Shape" fill="#5B5D6E" fill-rule="nonzero" points="64.9221053 52.3019849 61.7470565 52.3019849 62.1440936 46.5933116 64.5252242 46.5933116"></polygon>
                        <path d="M64.9221053,45.3246482 L61.7470565,45.3246482 L61.7470565,45.6910402 C61.7470565,46.5397236 62.4357115,47.2274874 63.2851462,47.2274874 L63.3837037,47.2274874 C64.2332943,47.2274874 64.9217934,46.5395678 64.9217934,45.6910402 L64.9217934,45.3246482 L64.9221053,45.3246482 Z" id="Shape" fill="#515262" fill-rule="nonzero"></path>
                        <g id="Group" transform="translate(55.672515, 39.879397)" fill-rule="nonzero" fill="#E4EAF6">
                            <path d="M1.85793372,0.227437186 L7.66191033,5.44540704 C7.66191033,5.44540704 6.03649123,6.2649598 4.0305653,7.91715075 C3.61684211,8.25799497 2.99087719,8.1198191 2.76896686,7.63223116 L0.0421052632,1.63972864 L0.904795322,0.347231156 C1.11968811,0.0252361809 1.57021442,-0.0313115578 1.85793372,0.227437186 Z" id="Shape"></path>
                            <path d="M13.4660429,0.227437186 L7.66206628,5.44540704 C7.66206628,5.44540704 9.28748538,6.2649598 11.2934113,7.91715075 C11.7071345,8.25799497 12.3330994,8.1198191 12.5550097,7.63223116 L15.2818713,1.63972864 L14.4191813,0.347231156 C14.2044444,0.0252361809 13.7539181,-0.0313115578 13.4660429,0.227437186 Z" id="Shape"></path>
                        </g>
                        <path d="M67.1840936,18.2875075 L67.7794932,22.489799 C70.4968421,23.0326884 70.8884211,27.2924623 70.9448733,28.5092513 C70.9551657,28.7299899 71.025653,28.943407 71.145575,29.1290955 L72.1824561,30.7356432 C72.1824561,30.7356432 71.8275244,28.0794573 73.4524756,26.2956332 C73.4523197,26.2956332 74.0101365,15.7503367 67.1840936,18.2875075 Z" id="Shape" fill="#785550" fill-rule="nonzero"></path>
                        <path d="M72.8193372,30.4644322 L72.1021442,33.3296734 C72.017154,33.6691156 71.7118129,33.9073015 71.3615595,33.9073015 L71.3615595,33.9073015 C70.9765302,33.9073015 70.6518519,33.6209799 70.6039766,33.2393216 L70.2373489,30.308809 C70.1392593,29.5250854 70.7510331,28.8329598 71.5415205,28.8329598 L71.5441715,28.8329598 C72.3993762,28.832804 73.0267446,29.6356884 72.8193372,30.4644322 Z" id="Shape" fill="#F0C087" fill-rule="nonzero"></path>
                        <path d="M55.6882651,17.1511005 L56.6275244,17.7919749 C52.3811306,20.9239095 53.1747368,26.2956332 53.1747368,26.2956332 C54.4447563,27.5642965 54.4447563,30.7356432 54.4447563,30.7356432 L55.7147758,29.4669799 C55.7147758,29.4669799 55.2246394,25.8022814 57.6198051,24.3926382 C59.8421832,23.084407 61.7868226,23.7584623 63.7710721,23.7584623 C69.0889669,23.7584623 70.5773099,21.756392 70.3193762,19.3184523 C70.1858869,18.056799 68.2549708,15.4291206 63.3347368,15.5126181 C61.3487719,15.5462663 57.6198051,16.1469497 55.6882651,17.1511005 Z" id="Shape" fill="#694B4B" fill-rule="nonzero"></path>
                        <path d="M55.3178947,23.2034221 C55.3178947,23.2034221 54.6432749,20.5472362 56.6275244,17.7919749 C52.3811306,20.9239095 53.1747368,26.2956332 53.1747368,26.2956332 C54.4447563,27.5642965 54.4447563,30.7356432 54.4447563,30.7356432 L55.7147758,29.4669799 C55.7147758,29.4669799 55.2246394,25.8022814 57.6196491,24.3926382 C59.8420273,23.084407 61.7866667,23.7584623 63.7709162,23.7584623 C64.6357895,23.7584623 65.3894737,23.7005126 66.0608187,23.6014372 C61.9653801,23.7386784 59.5511891,20.6399246 55.3178947,23.2034221 Z" id="Shape" fill="#5A4146" fill-rule="nonzero"></path>
                        <path d="M53.8496686,30.4644322 L54.5668616,33.3296734 C54.6518519,33.6691156 54.957193,33.9073015 55.3076023,33.9073015 L55.3076023,33.9073015 C55.6926316,33.9073015 56.0173099,33.6209799 56.0651852,33.2393216 L56.4318129,30.308809 C56.5299025,29.5250854 55.9181287,28.8329598 55.1274854,28.8329598 L55.1248343,28.8329598 C54.2699415,28.832804 53.6422612,29.6356884 53.8496686,30.4644322 Z" id="Shape" fill="#E6AF78" fill-rule="nonzero"></path>
                        <path d="M70.954386,51.0334774 L67.7793372,51.0334774 C67.0780507,51.0334774 66.5093177,51.6014472 66.5093177,52.3021407 L66.5093177,52.3021407 L72.2240936,52.3021407 L72.2240936,52.3021407 C72.2242495,51.6014472 71.6556725,51.0334774 70.954386,51.0334774 Z" id="Shape" fill="#E4EAF6" fill-rule="nonzero"></path>
                        <path d="M39.9461988,0.0778894472 C18.1696686,0.0778894472 20.5843275,26.5313266 20.6838207,45.7010101 C20.6875634,46.4249146 21.0671345,47.0777839 21.6879532,47.4514975 C24.1010526,48.904603 30.7281092,52.3019849 39.9461988,52.3019849 C49.1642885,52.3019849 55.791345,48.904603 58.2044444,47.4514975 C58.8251072,47.0776281 59.2048343,46.4249146 59.208577,45.7010101 C59.3080702,26.5311709 61.722729,0.0778894472 39.9461988,0.0778894472 Z" id="Shape" fill="#694B4B" fill-rule="nonzero"></path>
                        <path d="M38.5430019,0.132256281 C18.2902144,1.26648241 20.5865107,26.9576935 20.6838207,45.7008543 C20.6875634,46.4247588 21.0671345,47.0776281 21.6879532,47.4513417 C24.1010526,48.9044472 30.7281092,52.3018291 39.9461988,52.3018291 L45.4493567,13.8208593" id="Shape" fill="#5A4146" fill-rule="nonzero"></path>
                        <path d="M39.9461988,0.0778894472 C27.5641326,0.0778894472 26.7042495,15.0236281 26.7042495,15.0236281 C33.8410916,13.8211709 38.2264327,16.827392 45.4493567,13.8211709 L39.9461988,52.3021407 C49.1642885,52.3021407 55.791345,48.9047588 58.2044444,47.4516533 C58.8251072,47.0777839 59.2048343,46.4250704 59.208577,45.7011658 C59.3080702,26.5311709 61.722729,0.0778894472 39.9461988,0.0778894472 Z" id="Shape" fill="#694B4B" fill-rule="nonzero"></path>
                        <path d="M59.208577,45.7011658 C59.2940351,29.228794 61.0739961,7.39420101 47.7606238,1.57118593 C47.5284211,2.77629146 47.1079922,6.14033668 48.2008577,8.32388945 C50.9525146,13.8211709 53.7040156,13.8211709 56.4555166,17.9441709 C59.2070175,33.0617337 51.1979727,49.1072714 48.5380117,51.2914472 L48.5380117,51.2914472 C53.2509942,50.1717085 56.6295517,48.3998794 58.2042885,47.4516533 C58.8251072,47.0777839 59.2048343,46.4250704 59.208577,45.7011658 Z" id="Shape" fill="#785550" fill-rule="nonzero"></path>
                        <path d="M60.7946979,49.8705879 L48.5183626,44.7608844 C47.4930214,44.334206 46.8251072,43.3333266 46.8251072,42.2235578 L46.8251072,38.9023518 L33.0672904,38.9023518 L33.0672904,42.2235578 C33.0672904,43.3331709 32.3993762,44.3340503 31.3740351,44.7608844 L19.0976998,49.8705879 C17.5597661,50.5106834 16.5578168,52.0119246 16.5578168,53.6764221 L16.5578168,59.1737035 C16.5578168,60.6916131 17.7897856,61.9224221 19.3093177,61.9224221 L60.582924,61.9224221 C62.1024561,61.9224221 63.334425,60.6917688 63.334425,59.1737035 L63.334425,53.6764221 C63.3345809,52.0117688 62.3326316,50.5106834 60.7946979,49.8705879 Z" id="Shape" fill="#E6AF78" fill-rule="nonzero"></path>
                        <path d="M60.7946979,49.8705879 L48.9250682,44.9302161 L39.9461988,48.8011658 L30.9673294,44.9302161 L19.0976998,49.8705879 C17.5597661,50.5106834 16.5578168,52.0119246 16.5578168,53.6764221 L16.5578168,59.1737035 C16.5578168,60.6916131 17.7897856,61.9224221 19.3093177,61.9224221 L60.582924,61.9224221 C62.1024561,61.9224221 63.334425,60.6917688 63.334425,59.1737035 L63.334425,53.6764221 C63.3345809,52.0117688 62.3326316,50.5106834 60.7946979,49.8705879 Z" id="Shape" fill="#B4E1FA" fill-rule="nonzero"></path>
                        <path d="M46.8251072,38.9023518 L33.0672904,38.9023518 L33.0672904,42.2235578 C33.0672904,43.3331709 32.3993762,44.3340503 31.3740351,44.7608844 L29.4566862,45.5590955 C44.1291228,49.2960754 46.8251072,38.9023518 46.8251072,38.9023518 Z" id="Shape" fill="#D29B6E" fill-rule="nonzero"></path>
                        <g id="Group" transform="translate(16.530214, 42.527638)" fill-rule="nonzero" fill="#A0D2F0">
                            <path d="M6.73341131,12.6593719 L1.21122807,8.27154774 C0.471423002,9.02738693 0.02791423,10.0494523 0.02791423,11.1486281 L0.02791423,16.6459095 C0.02791423,18.1638191 1.25988304,19.3944724 2.7794152,19.3944724 L8.2825731,19.3944724 L8.2825731,15.8788543 C8.28226121,14.626392 7.71243665,13.4418492 6.73341131,12.6593719 Z" id="Shape"></path>
                            <path d="M46.8043665,16.6459095 L46.8043665,11.1486281 C46.8043665,10.0578643 46.3681871,9.04280905 45.6386745,8.28868342 L40.0985575,12.6593719 C39.1195322,13.4418492 38.5495517,14.626392 38.5495517,15.8788543 L38.5495517,19.3944724 L44.0527096,19.3944724 C45.5723977,19.3946281 46.8043665,18.1639749 46.8043665,16.6459095 Z" id="Shape"></path>
                            <path d="M23.4159844,16.6459095 L23.4159844,16.6459095 C22.6562183,16.6459095 22.0402339,16.0305829 22.0402339,15.2716281 L22.0402339,6.27664322 L24.7917349,6.27664322 L24.7917349,15.2717839 C24.7917349,16.0307387 24.1757505,16.6459095 23.4159844,16.6459095 Z" id="Shape"></path>
                            <path d="M23.4159844,6.27352764 L15.5416764,0.374025126 C15.0362573,-0.00467336683 14.3159454,0.118547739 13.9655361,0.643678392 L12.4096686,2.97506533 L17.237271,9.72636683 C17.6042105,10.2396583 18.3274854,10.3398241 18.8204288,9.9458593 L23.4159844,6.27352764 Z" id="Shape"></path>
                            <path d="M23.4159844,6.27352764 L31.2902924,0.374025126 C31.7957115,-0.00467336683 32.5160234,0.118547739 32.8664327,0.643678392 L34.4223002,2.97506533 L29.5946979,9.72636683 C29.2277583,10.2396583 28.5044834,10.3398241 28.01154,9.9458593 L23.4159844,6.27352764 Z" id="Shape"></path>
                        </g>
                        <path d="M46.8251072,12.4467337 C39.9461988,19.3182965 26.4463158,13.8210151 26.4463158,24.8155779 L27.3007407,32.9143668 C27.4654191,34.7259196 28.5169591,36.3388543 30.108694,37.2221206 L37.9419883,41.5692864 C39.188616,42.2611005 40.7042495,42.2611005 41.9508772,41.5692864 L49.7841715,37.2221206 C51.3759064,36.3385427 52.4272904,34.7257638 52.5921248,32.9143668 L53.5783236,23.295799 C53.648499,22.6122412 53.6634698,21.9244774 53.6402339,21.2382714 C53.1251462,17.7399447 48.2008577,15.1952965 46.8251072,12.4467337 Z" id="Shape" fill="#F0C087" fill-rule="nonzero"></path>
                        <path d="M26.4463158,24.8155779 L27.3007407,32.9143668 C27.4654191,34.7259196 28.5169591,36.3388543 30.108694,37.2221206 L37.9419883,41.5692864 C38.8070175,42.0492412 39.7989864,42.1737085 40.7432359,41.9875528 L40.7432359,41.9875528 C40.7432359,41.9875528 36.7937622,40.7921055 34.4433528,34.4358593 C33.7233528,32.4886231 32.7235867,22.1815126 33.5834698,20.9217286 C35.2831189,18.431603 44.7617934,18.1730101 47.5625731,13.5536985 C47.4240936,13.3821859 47.2963743,13.2105176 47.1797271,13.0383819 C47.1702144,13.0245176 47.1589864,13.0104975 47.1496296,12.9966332 C47.0279922,12.8140603 46.9175828,12.6308643 46.8254191,12.4467337 C39.9461988,19.3182965 26.4463158,13.8210151 26.4463158,24.8155779 Z" id="Shape" fill="#E6AF78" fill-rule="nonzero"></path>
                        <path d="M50.9525146,59.1735477 L45.4493567,59.1735477 C44.6895906,59.1735477 44.0736062,59.7888744 44.0736062,60.5478291 L44.0736062,61.9221106 L52.3282651,61.9221106 L52.3282651,60.5478291 C52.3282651,59.7888744 51.7122807,59.1735477 50.9525146,59.1735477 Z" id="Shape" fill="#A0D2F0" fill-rule="nonzero"></path>
                    </g>
                </g>
            </g>
        </g>
    </g>
</svg>