
<svg width="18px" height="18px" viewBox="0 0 18 18" version="1.1" xmlns="http://www.w3.org/2000/svg" xmlns:xlink="http://www.w3.org/1999/xlink">
    <!-- Generator: Sketch 44 (41411) - http://www.bohemiancoding.com/sketch -->
    <desc>Created with Sketch.</desc>
    <defs></defs>
    <g id="Mob-Designs" stroke="none" stroke-width="1" fill="none" fill-rule="evenodd" opacity="0.137398098">
        <g id="Index-Desktop-HD" transform="translate(-900.000000, -4648.000000)">
            <g id="Section7-Contacts-+-Footer" transform="translate(-20.000000, 4278.000000)">
                <g id="Contacts">
                    <g transform="translate(0.000000, 69.000000)">
                        <g id="contacts" transform="translate(894.000000, 5.000000)">
                            <g id="icons-cont" transform="translate(25.000000, 131.000000)">
                                <g id="skype" transform="translate(0.000000, 164.000000)">
                                    <rect id="Rectangle-4" fill="#D8D8D8" opacity="0" x="0" y="0" width="20" height="20"></rect>
                                    <path d="M14.2546795,11.7005897 C14.2546795,13.8790782 12.1513115,14.8878365 10.1337955,14.8878365 C7.71921538,14.8878365 5.70169872,13.8146891 5.70169872,12.4947186 C5.70169872,11.9044878 6.03437436,11.3679147 6.78557756,11.3679147 C7.93384423,11.3679147 8.04115897,13.0205609 10.0264808,13.0205609 C10.97085,13.0205609 11.5825436,12.6020333 11.5825436,12.0547282 C11.5825436,11.3679147 10.9923128,11.2606 10.0372122,11.0245077 L8.47041795,10.6381744 C6.90362372,10.2625731 5.70169872,9.61868526 5.70169872,7.81579808 C5.70169872,5.63731026 7.85872436,4.83245 9.71526859,4.83245 C11.743516,4.83245 13.7932263,5.63731026 13.7932263,6.87142885 C13.7932263,7.49385449 13.3746994,8.04115897 12.6771538,8.04115897 C11.6362013,8.04115897 11.6040071,6.80704038 9.91916603,6.80704038 C8.97479679,6.80704038 8.37383462,7.06459551 8.37383462,7.63336346 C8.37383462,8.25578846 8.98552821,8.39529744 9.80111987,8.5884641 L10.9171929,8.84601923 C12.4410615,9.18942628 14.2546795,9.83331474 14.2546795,11.7005897 Z M18.1502026,14.0293186 C18.1502026,13.0849494 17.828259,12.2157006 17.2916853,11.5181551 C17.399,11.0030442 17.4633891,10.4557397 17.4633891,9.90843462 C17.4633891,5.73389359 14.0829763,2.35348077 9.90843462,2.35348077 C9.36113013,2.35348077 8.813825,2.41786923 8.2987141,2.52518397 C7.60116923,1.9886109 6.73191987,1.66666667 5.78755064,1.66666667 C3.51247949,1.66666667 1.66666667,3.51247949 1.66666667,5.78755064 C1.66666667,6.73191987 1.9886109,7.60116859 2.52518397,8.2987141 C2.41786923,8.813825 2.35348077,9.36112949 2.35348077,9.90843462 C2.35348077,14.0829763 5.73389359,17.4633885 9.90843462,17.4633885 C10.4557397,17.4633885 11.0030449,17.399 11.5181551,17.2916853 C12.2157006,17.828259 13.0849494,18.1502026 14.0293186,18.1502026 C16.3043904,18.1502026 18.1502026,16.3043904 18.1502026,14.0293186 Z" id="Shape" fill="#000000" fill-rule="nonzero"></path>
                                </g>
                            </g>
                        </g>
                    </g>
                </g>
            </g>
        </g>
    </g>
</svg>