<?xml version="1.0" encoding="UTF-8" standalone="no"?>
<svg width="80px" height="80px" viewBox="0 0 80 80" version="1.1" xmlns="http://www.w3.org/2000/svg" xmlns:xlink="http://www.w3.org/1999/xlink">
    <!-- Generator: Sketch 46.2 (44496) - http://www.bohemiancoding.com/sketch -->
    <title>Service ion</title>
    <desc>Created with Sketch.</desc>
    <defs></defs>
    <g id="Web-Designs" stroke="none" stroke-width="1" fill="none" fill-rule="evenodd">
        <g id="Index-Desktop-HD" transform="translate(-681.000000, -865.000000)">
            <g id="Section2-Services" transform="translate(208.000000, 640.000000)">
                <g id="Services" transform="translate(27.000000, 225.000000)">
                    <g id="Service-item" transform="translate(402.000000, 0.000000)">
                        <g id="icon/service-mob" transform="translate(44.000000, 0.000000)">
                            <g id="smartphone-(1)">
                                <g id="Group" transform="translate(0.000000, 17.556936)" fill-rule="nonzero" fill="#64798A">
                                    <path d="M74.2279089,8.83180124 C74.6269151,8.93151139 75.026087,9.03138716 75.4250932,9.03138716 C77.9193375,9.03138716 79.9146998,7.03602484 79.9146998,4.54178054 C79.9146998,2.04753623 77.9193375,0.052173913 75.4250932,0.052173913 C72.9308489,0.052173913 70.9354865,2.04753623 70.9354865,4.54178054 C70.9354865,5.83884058 71.4343685,6.93614907 72.3322567,7.73432712 L70.1373085,10.5278675 L62.6547412,10.5278675 L62.6547412,12.7228157 L71.1350725,12.7228157 L74.2279089,8.83180124 Z M75.4250932,2.24712215 C76.7221532,2.24712215 77.7197516,3.24488613 77.7197516,4.54178054 C77.7197516,5.83867495 76.7219876,6.83643892 75.4250932,6.83643892 C74.1280331,6.83643892 73.1304348,5.83867495 73.1304348,4.54178054 C73.1304348,3.24488613 74.1280331,2.24712215 75.4250932,2.24712215 Z" id="Shape"></path>
                                    <path d="M75.4250932,35.769441 C75.026087,35.769441 74.6269151,35.8691511 74.2279089,35.9690269 L71.1350725,32.0780124 L62.6547412,32.0780124 L62.6547412,34.2729607 L70.1373085,34.2729607 L72.3322567,37.066501 C71.5340787,37.8646791 70.9354865,39.0618634 70.9354865,40.2590476 C70.9354865,42.7532919 72.9308489,44.7486542 75.4250932,44.7486542 C77.9193375,44.7486542 79.9146998,42.7532919 79.9146998,40.2590476 C79.9146998,37.7648033 77.9193375,35.769441 75.4250932,35.769441 Z M75.4250932,42.553706 C74.1280331,42.553706 73.1304348,41.555942 73.1304348,40.2590476 C73.1304348,38.9619876 74.1281988,37.9643892 75.4250932,37.9643892 C76.7221532,37.9643892 77.7197516,38.9621532 77.7197516,40.2590476 C77.7197516,41.4562319 76.7219876,42.553706 75.4250932,42.553706 Z" id="Shape"></path>
                                    <rect id="Rectangle-path" x="63.7522153" y="17.7113043" width="9.57780538" height="2.19494824"></rect>
                                    <rect id="Rectangle-path" x="76.2232712" y="17.7113043" width="2.49424431" height="2.19494824"></rect>
                                    <rect id="Rectangle-path" x="63.7522153" y="24.8945756" width="9.57780538" height="2.19494824"></rect>
                                    <rect id="Rectangle-path" x="76.2232712" y="24.8945756" width="2.49424431" height="2.19494824"></rect>
                                    <path d="M8.77962733,12.8225259 L17.2599586,12.8225259 L17.2599586,10.6275776 L9.7773913,10.6275776 L7.58244306,7.83403727 C8.38062112,7.03585921 8.97921325,5.83867495 8.97921325,4.64149068 C8.97921325,2.14724638 6.98385093,0.151884058 4.48960663,0.151884058 C1.99536232,0.151884058 0,2.14741201 0,4.64165631 C0,7.13590062 1.99536232,9.13126294 4.48960663,9.13126294 C4.88861284,9.13126294 5.28778468,9.0315528 5.68679089,8.93167702 L8.77962733,12.8225259 Z M6.88397516,4.54178054 C6.88397516,5.83884058 5.88621118,6.83643892 4.58931677,6.83643892 C3.29242236,6.83643892 2.29465839,5.83867495 2.29465839,4.54178054 C2.29465839,3.2447205 3.29242236,2.24712215 4.58931677,2.24712215 C5.88637681,2.24712215 6.88397516,3.34459627 6.88397516,4.54178054 Z" id="Shape"></path>
                                    <path d="M0.0997101449,40.2590476 C0.0997101449,42.7532919 2.09507246,44.7486542 4.58931677,44.7486542 C7.08356108,44.7486542 9.0789234,42.7532919 9.0789234,40.2590476 C9.0789234,38.9619876 8.58004141,37.8646791 7.68215321,37.066501 L9.87710145,34.2729607 L17.3596687,34.2729607 L17.3596687,32.0780124 L8.87933747,32.0780124 L5.78650104,35.9690269 C5.38749482,35.8693168 4.98832298,35.769441 4.58931677,35.769441 C2.09507246,35.769441 0.0997101449,37.7648033 0.0997101449,40.2590476 Z M2.29465839,40.2590476 C2.29465839,38.9619876 3.29242236,37.9643892 4.58931677,37.9643892 C5.88621118,37.9643892 6.88397516,38.9621532 6.88397516,40.2590476 C6.88397516,41.5561077 5.88621118,42.553706 4.58931677,42.553706 C3.29242236,42.553706 2.29465839,41.4562319 2.29465839,40.2590476 Z" id="Shape"></path>
                                    <rect id="Rectangle-path" x="6.68455487" y="17.7113043" width="9.57780538" height="2.19494824"></rect>
                                    <rect id="Rectangle-path" x="1.39677019" y="17.7113043" width="2.49424431" height="2.19494824"></rect>
                                    <rect id="Rectangle-path" x="6.68455487" y="24.8945756" width="9.57780538" height="2.19494824"></rect>
                                    <rect id="Rectangle-path" x="1.39677019" y="24.8945756" width="2.49424431" height="2.19494824"></rect>
                                </g>
                                <path d="M61.1580952,2.94310559 L18.8563147,2.94310559 C17.4595445,2.94310559 16.2623602,4.14028986 16.2623602,5.53706004 L16.2623602,77.2707246 C16.2623602,78.6674948 17.4595445,79.8646791 18.8563147,79.8646791 L61.1582609,79.8646791 C62.5550311,79.8646791 63.7522153,78.6674948 63.7522153,77.2707246 L63.7522153,5.53722567 C63.7522153,4.14045549 62.5548654,2.94310559 61.1580952,2.94310559 Z" id="Shape" fill="#D5D6DB" fill-rule="nonzero"></path>
                                <path d="M61.1580952,0.0498550725 L18.8563147,0.0498550725 C17.4595445,0.0498550725 16.2623602,1.24703934 16.2623602,2.64380952 L16.2623602,74.3774741 C16.2623602,75.7742443 17.4595445,76.9714286 18.8563147,76.9714286 L61.1582609,76.9714286 C62.5550311,76.9714286 63.7522153,75.7742443 63.7522153,74.3774741 L63.7522153,2.64380952 C63.7522153,1.24703934 62.5548654,0.0498550725 61.1580952,0.0498550725 Z" id="Shape" fill="#EBF0F3" fill-rule="nonzero"></path>
                                <rect id="Rectangle-path" fill="#64798A" fill-rule="nonzero" x="22.0488613" y="5.83652174" width="35.9166874" height="58.8634369"></rect>
                                <rect id="Rectangle-path" fill="#3A556A" fill-rule="nonzero" x="22.0488613" y="56.5189234" width="35.9166874" height="8.28074534"></rect>
                                <path d="M40.0072878,75.1756522 C37.8123395,75.1756522 36.0165631,73.3798758 36.0165631,71.1849275 C36.0165631,68.9899793 37.8123395,67.1942029 40.0072878,67.1942029 C42.202236,67.1942029 43.9980124,68.9899793 43.9980124,71.1849275 C43.9980124,73.3798758 42.2020704,75.1756522 40.0072878,75.1756522 Z M40.0072878,68.5909731 C38.6105176,68.5909731 37.4133333,69.7881573 37.4133333,71.1849275 C37.4133333,72.5816977 38.6105176,73.778882 40.0072878,73.778882 C41.404058,73.778882 42.6012422,72.5816977 42.6012422,71.1849275 C42.6012422,69.7881573 41.4038923,68.5909731 40.0072878,68.5909731 Z" id="Shape" fill="#64798A" fill-rule="nonzero"></path>
                                <path d="M28.6335404,58.0154037 L24.8424017,58.0154037 C24.4433954,58.0154037 24.0442236,58.4144099 24.0442236,58.8135818 L24.0442236,62.6047205 C24.0442236,63.0037267 24.4432298,63.4028986 24.8424017,63.4028986 L28.6335404,63.4028986 C29.0325466,63.4028986 29.4317184,63.0038923 29.4317184,62.6047205 L29.4317184,58.8135818 C29.4317184,58.4145756 29.1324224,58.0154037 28.6335404,58.0154037 Z" id="Shape" fill="#FFD500" fill-rule="nonzero"></path>
                                <path d="M37.5130435,58.0154037 L33.7219048,58.0154037 C33.3228986,58.0154037 32.9237267,58.4144099 32.9237267,58.8135818 L32.9237267,62.6047205 C32.9237267,63.0037267 33.3227329,63.4028986 33.7219048,63.4028986 L37.5130435,63.4028986 C37.9120497,63.4028986 38.3112215,63.0038923 38.3112215,62.6047205 L38.3112215,58.8135818 C38.3112215,58.4145756 37.9120497,58.0154037 37.5130435,58.0154037 Z" id="Shape" fill="#7ED321" fill-rule="nonzero"></path>
                                <path d="M46.2926708,58.0154037 L42.5015321,58.0154037 C42.1025259,58.0154037 41.703354,58.4144099 41.703354,58.8135818 L41.703354,62.6047205 C41.703354,63.0037267 42.1023602,63.4028986 42.5015321,63.4028986 L46.2926708,63.4028986 C46.691677,63.4028986 47.0908489,63.0038923 47.0908489,62.6047205 L47.0908489,58.8135818 C47.0908489,58.4145756 46.7915528,58.0154037 46.2926708,58.0154037 Z" id="Shape" fill="#FFA100" fill-rule="nonzero"></path>
                                <path d="M55.1720083,58.0154037 L51.3808696,58.0154037 C50.9818634,58.0154037 50.5826915,58.4144099 50.5826915,58.8135818 L50.5826915,62.6047205 C50.5826915,63.0037267 50.9816977,63.4028986 51.3808696,63.4028986 L55.1720083,63.4028986 C55.5710145,63.4028986 55.9701863,63.0038923 55.9701863,62.6047205 L55.9701863,58.8135818 C55.8704762,58.4145756 55.5711801,58.0154037 55.1720083,58.0154037 Z" id="Shape" fill="#FF7D00" fill-rule="nonzero"></path>
                                <circle id="Oval" fill="#FFFFFF" fill-rule="nonzero" cx="40.0072878" cy="30.7786335" r="12.3713458"></circle>
                                <g id="Group" transform="translate(31.304348, 19.875776)" fill-rule="nonzero" fill="#FF7D00">
                                    <circle id="Oval" cx="8.70293996" cy="4.61747412" r="4.58931677"></circle>
                                    <path d="M8.70293996,21.1789648 C12.3943685,21.1789648 15.5869151,19.2833126 17.3828571,16.3900621 C15.8863768,12.9979296 12.5939545,10.7032712 8.70293996,10.7032712 C4.81192547,10.7032712 1.51966874,12.9979296 0.0230227743,16.3900621 C1.81879917,19.2834783 5.01134576,21.1789648 8.70293996,21.1789648 Z" id="Shape"></path>
                                </g>
                            </g>
                        </g>
                    </g>
                </g>
            </g>
        </g>
    </g>
</svg>