<?xml version="1.0" encoding="UTF-8" standalone="no"?>
<svg width="80px" height="80px" viewBox="0 0 80 80" version="1.1" xmlns="http://www.w3.org/2000/svg" xmlns:xlink="http://www.w3.org/1999/xlink">
    <!-- Generator: Sketch 46.2 (44496) - http://www.bohemiancoding.com/sketch -->
    <title>Service ion</title>
    <desc>Created with Sketch.</desc>
    <defs></defs>
    <g id="Web-Designs" stroke="none" stroke-width="1" fill="none" fill-rule="evenodd">
        <g id="Index-Desktop-HD" transform="translate(-398.000000, -2078.000000)">
            <g id="Section4-Types" transform="translate(208.000000, 1807.000000)">
                <g id="items-/-Clients-category" transform="translate(120.000000, 262.000000)">
                    <g id="icon/type-pers" transform="translate(70.000000, 9.000000)">
                        <g id="student">
                            <path d="M40.0001562,80 C62.03125,80 80,62.03125 80,39.9998437 C80,17.96875 62.03125,0 40.0001562,0 C17.9689062,0 0,17.96875 0,39.9998437 C0,62.03125 17.9689062,80 40.0001562,80 Z" id="Shape" fill="#FFD500" fill-rule="nonzero"></path>
                            <polygon id="Shape" fill="#F0B97D" fill-rule="nonzero" points="36.2678125 30.5710937 37.7504688 30.5710937 42.2482813 30.5710937 43.7310938 30.5710937 44.335625 36.86125 45.409375 37.7229687 47.6742188 39.1645312 39.999375 57.2929687 32.3248438 39.1645312 34.5896875 37.7229687 35.6639063 36.8617187"></polygon>
                            <path d="M33.9117188,38.154375 L22.9701563,41.6464063 C22.9701563,41.6464063 21.905625,42.200625 21.3440625,43.80875 C18.0848438,47.3007813 7.6453125,58.713125 7.6453125,61.6104688 C7.6453125,65.0439063 16.5559375,73.3135938 16.5559375,73.3135938 L20.7853125,73.3135938 L20.7853125,76.2770313 L39.9995313,76.2770313 L59.2140625,76.2770313 L59.2140625,73.3135938 L63.44375,73.3135938 C63.44375,73.3135938 72.3542188,65.0439063 72.3542188,61.6104688 C72.3542188,58.7123438 61.913125,47.2992188 58.655,43.8076563 C58.0926563,42.200625 57.0290625,41.6465625 57.0290625,41.6465625 L46.1621875,38.2021875 L45.2401563,40.9064063 L39.9995313,40.6520313 L34.8351563,40.9028125 L33.9117188,38.154375 L33.9117188,38.154375 Z M20.7853125,58.160625 L20.7853125,58.160625 L22.1414063,63.57 L21.9015625,69.2846875 L20.7853125,68.0071875 L16.8910938,62.4445313 L20.7853125,58.160625 L20.7853125,58.160625 Z M59.2140625,68.0075 L59.2140625,68.0075 L58.0984375,69.2159375 L57.858125,62.5775 L59.2140625,58.16 L63.1089063,62.4446875 L59.2140625,68.0075 Z" id="Shape" fill="#7ED321" fill-rule="nonzero"></path>
                            <polygon id="Shape" fill="#F1F1F1" fill-rule="nonzero" points="33.805625 38.1884375 32.3335938 38.6579687 39.999375 57.293125 47.7332813 38.7 46.1620313 38.2021875 42.3135938 40.5804687 37.6996875 40.5804687"></polygon>
                            <path d="M33.9117188,38.154375 L31.5514063,38.9078125 L31.098125,44.8960938 C31.098125,44.8960938 31.2229688,45.3882813 31.5976563,45.3440625 L33.7276563,46.1446875 C33.7276563,46.1446875 33.8670313,46.284375 33.7423438,46.4604688 L31.919375,47.7095313 L38.2175,59.5792188 C38.8071875,59.6132813 39.4014063,59.6304688 39.9992188,59.6304688 C40.5976563,59.6304688 41.1915625,59.6132813 41.7810938,59.5792188 L48.0792188,47.7095313 L46.2564063,46.4604688 C46.1317188,46.284375 46.2709375,46.1446875 46.2709375,46.1446875 L48.4007813,45.3440625 C48.7757813,45.3882813 48.900625,44.8960938 48.900625,44.8960938 L48.4484375,38.9271875 L46.1614063,38.2020313 L39.9989063,56.274375 L33.9117188,38.154375 L33.9117188,38.154375 Z" id="Shape" fill="#417505" fill-rule="nonzero"></path>
                            <path d="M48.6914062,17.7798437 C48.6914062,18.3642187 48.9048437,18.9367187 48.8889062,19.4975 C50.8889062,19.12625 49.9232812,25.0667187 48.7917187,25.8835937 C48.701875,25.9484375 48.480625,25.8035937 48.2940625,25.6845312 C47.9015625,27.8696875 44.5517187,33.7078125 42.421875,36.1651562 C41.8303125,36.8476562 38.2134375,36.8360937 37.6276562,36.19125 C35.4460937,33.7896875 32.100625,27.8821875 31.7060937,25.6845312 C31.5190625,25.80375 31.2979687,25.9484375 31.2082812,25.8835937 C30.0767187,25.0667187 29.1109375,19.12625 31.1109375,19.4975 C31.0951562,18.9367187 31.308125,18.3642187 31.308125,17.7798437 C31.4189062,13.1670312 35.5984375,10.8640625 40,10.8445312 C44.4009375,10.8640625 48.5809375,13.1670312 48.6914062,17.7798437 L48.6914062,17.7798437 Z" id="Shape" fill="#FED198" fill-rule="nonzero"></path>
                            <path d="M46.0115625,11.8665625 C46.6420313,11.7932813 48.9204688,12.4910938 49.19375,14.9015625 C49.4675,17.3121875 49.3364063,19.5329688 49.3364063,19.5329688 C49.3364063,19.5329688 48.001875,19.8701563 47.83375,21.238125 C47.6659375,22.6064063 47.785625,22.6064063 47.785625,22.6064063 L47.3023438,22.4979688 L46.9579688,20.1521875 C44.9610938,18.9010938 46.9729688,17.0476563 44.975625,16.6135938 C39.5815625,20.458125 34.8223438,19.8003125 32.6760938,17.9915625 C32.6760938,17.9915625 33.1771875,19.8832813 32.7907813,20.5575 C32.4045313,21.2321875 32.6351563,22.295 32.6351563,22.295 L32.1334375,22.270625 C32.1334375,22.270625 32.2242188,19.485 31.1104688,19.4971875 C26.8790625,12.510625 40.275625,3.83171875 46.0115625,11.8665625 L46.0115625,11.8665625 Z" id="Shape" fill="#666666" fill-rule="nonzero"></path>
                            <g id="Group" transform="translate(33.750000, 35.937500)" fill-rule="nonzero" fill="#FFFFFF">
                                <path d="M1.86171875,0.025625 C2.0184375,0.03671875 0.03515625,2.25671875 0.03515625,2.25671875 L1.72328125,7.9946875 L6.2496875,4.6425 C3.75984375,3.43015625 2.2740625,1.8596875 1.86171875,0.025625 L1.86171875,0.025625 Z" id="Shape"></path>
                                <path d="M10.6379688,0.025625 C10.4815625,0.03671875 12.4642188,2.25671875 12.4642188,2.25671875 L10.7757813,7.9946875 L6.2496875,4.6425 C8.73953125,3.43015625 10.2254687,1.8596875 10.6379688,0.025625 L10.6379688,0.025625 Z" id="Shape"></path>
                            </g>
                            <path d="M20.395,69.9765625 C22.946875,69.9765625 25.0151563,71.260625 25.0151563,72.844375 C25.0151563,74.4279687 22.946875,75.7121875 20.395,75.7121875 C17.843125,75.7121875 15.7748438,74.4278125 15.7748438,72.844375 C15.7748438,71.260625 17.843125,69.9765625 20.395,69.9765625 Z M20.395,70.7340625 L20.395,70.7340625 C18.4090625,70.7340625 16.7996875,71.6796875 16.7996875,72.844375 C16.7996875,74.0096875 18.4090625,74.9553125 20.395,74.9553125 C22.3809375,74.9553125 23.990625,74.0096875 23.990625,72.844375 C23.9904688,71.6796875 22.3809375,70.7340625 20.395,70.7340625 Z" id="Shape" fill="#ECF0F1" fill-rule="nonzero"></path>
                            <path d="M20.395,74.955 C22.3753125,74.955 23.990625,74.0070313 23.990625,72.8446875 C23.990625,71.6821875 22.3753125,70.7340625 20.395,70.7340625 C18.4146875,70.7340625 16.7996875,71.6821875 16.7996875,72.8446875 C16.7995312,74.006875 18.4146875,74.955 20.395,74.955 Z" id="Shape" fill="#377BB9" fill-rule="nonzero"></path>
                            <path d="M18.931875,74.05 L18.931875,76.3610937 C18.931875,76.6476562 18.6978125,76.8821875 18.410625,76.8821875 L17.4917188,76.8821875 C17.205,76.8821875 16.9704688,76.6476562 16.9704688,76.3610937 L16.9704688,72.7846875 C16.9704688,72.73 16.9790625,72.6773437 16.9948438,72.6276563 L16.9948438,71.8403125 C16.9948438,71.1710937 17.5423438,70.62375 18.2117188,70.62375 L25.7351563,70.62375 C26.404375,70.62375 26.9514063,71.1709375 26.9514063,71.8403125 L26.9514063,72.6265625 C26.9678125,72.6764062 26.97625,72.7295312 26.97625,72.7848437 L26.97625,76.36125 C26.97625,76.6478125 26.7420313,76.8823437 26.455,76.8823437 L25.53625,76.8823437 C25.249375,76.8823437 25.015,76.6478125 25.015,76.36125 L25.015,74.0501563 L24.2946875,74.0501563 L24.2946875,76.36125 C24.2946875,76.6478125 24.060625,76.8823437 23.7734375,76.8823437 L22.8545313,76.8823437 C22.5676563,76.8823437 22.3332813,76.6478125 22.3332813,76.36125 L22.3332813,74.0501563 L21.6132813,74.0501563 L21.6132813,76.36125 C21.6132813,76.6478125 21.37875,76.8823437 21.0920313,76.8823437 L20.173125,76.8823437 C19.8859375,76.8823437 19.651875,76.6478125 19.651875,76.36125 L19.651875,74.0501563 L18.931875,74.05 L18.931875,74.05 Z" id="Shape" fill="#FBB429" fill-rule="nonzero"></path>
                            <path d="M59.6054688,69.9765625 C57.0540625,69.9765625 54.9854688,71.260625 54.9854688,72.844375 C54.9854688,74.4279687 57.0539063,75.7121875 59.6054688,75.7121875 C62.1573438,75.7121875 64.2259375,74.4278125 64.2259375,72.844375 C64.2259375,71.260625 62.1571875,69.9765625 59.6054688,69.9765625 Z M59.6054688,70.7340625 L59.6054688,70.7340625 C61.5914063,70.7340625 63.2010938,71.6796875 63.2010938,72.844375 C63.2010938,74.0096875 61.5915625,74.9553125 59.6054688,74.9553125 C57.6195313,74.9553125 56.0103125,74.0096875 56.0103125,72.844375 C56.0101563,71.6796875 57.619375,70.7340625 59.6054688,70.7340625 Z" id="Shape" fill="#ECF0F1" fill-rule="nonzero"></path>
                            <path d="M59.6057812,74.955 C61.5859375,74.955 63.2014062,74.0070313 63.2014062,72.8446875 C63.2014062,71.6821875 61.5859375,70.7340625 59.6057812,70.7340625 C57.6254687,70.7340625 56.0104687,71.6821875 56.0104687,72.8446875 C56.0103125,74.006875 57.6254687,74.955 59.6057812,74.955 Z" id="Shape" fill="#333333" fill-rule="nonzero"></path>
                            <path d="M61.06875,74.05 L61.06875,76.3610937 C61.06875,76.6476562 61.3028125,76.8821875 61.59,76.8821875 L62.5089063,76.8821875 C62.7959375,76.8821875 63.03,76.6476562 63.03,76.3610937 L63.03,72.7846875 C63.03,72.73 63.0214063,72.6773437 63.005625,72.6276563 L63.005625,71.8403125 C63.005625,71.1710937 62.4584375,70.62375 61.7890625,70.62375 L54.2654688,70.62375 C53.59625,70.62375 53.0489063,71.1709375 53.0489063,71.8403125 L53.0489063,72.6265625 C53.0325,72.6764062 53.0242188,72.7295312 53.0242188,72.7848437 L53.0242188,76.36125 C53.0242188,76.6478125 53.2582813,76.8823437 53.5453125,76.8823437 L54.464375,76.8823437 C54.7509375,76.8823437 54.9854688,76.6478125 54.9854688,76.36125 L54.9854688,74.0501563 L55.705625,74.0501563 L55.705625,76.36125 C55.705625,76.6478125 55.9401563,76.8823437 56.226875,76.8823437 L57.1457813,76.8823437 C57.4329688,76.8823437 57.6670313,76.6478125 57.6670313,76.36125 L57.6670313,74.0501563 L58.3873438,74.0501563 L58.3873438,76.36125 C58.3873438,76.6478125 58.6215625,76.8823437 58.9085938,76.8823437 L59.8275,76.8823437 C60.1142188,76.8823437 60.3482813,76.6478125 60.3482813,76.36125 L60.3482813,74.0501563 L61.06875,74.05 L61.06875,74.05 Z" id="Shape" fill="#FBB429" fill-rule="nonzero"></path>
                            <path d="M19.3903125,47.6873438 L60.6096875,47.6873438 C61.9260938,47.6873438 63.0029688,48.764375 63.0029688,50.0803125 L63.0029688,72.861875 C63.0029688,74.1779688 61.9260938,75.2553125 60.6096875,75.2553125 L19.3903125,75.2553125 C18.0739063,75.2553125 16.996875,74.1779688 16.996875,72.861875 L16.996875,50.0803125 C16.996875,48.764375 18.0739063,47.6873438 19.3903125,47.6873438 Z" id="Shape" fill="#FFFFFF" fill-rule="nonzero"></path>
                            <path d="M17.905,76.4292188 L62.095,76.4292188 C62.5945313,76.4292188 63.003125,76.8379688 63.003125,77.338125 L63.003125,79.0896875 C63.003125,79.59 62.594375,79.9982813 62.095,79.9982813 L17.905,79.9982813 C17.4053125,79.9982813 16.9965625,79.59 16.9965625,79.0896875 L16.9965625,77.338125 C16.9965625,76.8379688 17.4053125,76.4292188 17.905,76.4292188 Z" id="Shape" fill="#C8CACC" fill-rule="nonzero"></path>
                            <g id="Group" transform="translate(23.750000, 57.968750)" fill-rule="nonzero" fill="#ECF0F1">
                                <path d="M0.00421875,16.7384375 L3.91015625,16.7384375 L3.91015625,19.4015625 L0.00421875,19.4015625 L0.00421875,16.7384375 Z M28.5904687,16.7384375 L28.5904687,16.7384375 L32.4964062,16.7384375 L32.4964062,19.4015625 L28.5904687,19.4015625 L28.5904687,16.7384375 Z" id="Shape"></path>
                                <path d="M11.9165625,0.05328125 L20.583125,0.05328125 C20.6995312,0.05328125 20.7942187,0.14796875 20.7942187,0.264375 L20.7942187,2.22625 C20.7942187,2.3425 20.6995312,2.43703125 20.583125,2.43703125 L11.9165625,2.43703125 C11.8003125,2.43703125 11.7057812,2.3425 11.7057812,2.22625 L11.7057812,0.264375 C11.7059375,0.14796875 11.8003125,0.05328125 11.9165625,0.05328125 Z" id="Shape"></path>
                            </g>
                        </g>
                    </g>
                </g>
            </g>
        </g>
    </g>
</svg>