<?xml version="1.0" encoding="UTF-8" standalone="no"?>
<svg width="80px" height="75px" viewBox="0 0 80 75" version="1.1" xmlns="http://www.w3.org/2000/svg" xmlns:xlink="http://www.w3.org/1999/xlink">
    <!-- Generator: Sketch 47.1 (45422) - http://www.bohemiancoding.com/sketch -->
    <title>Service ion</title>
    <desc>Created with Sketch.</desc>
    <defs></defs>
    <g id="Web-Designs" stroke="none" stroke-width="1" fill="none" fill-rule="evenodd">
        <g id="Services---DIGITAL-MARKETING" transform="translate(-681.000000, -1249.000000)">
            <g id="types-/-tab-copy-7" transform="translate(569.000000, 1233.000000)">
                <g id="icon/pr" transform="translate(112.000000, 13.000000)">
                    <g id="text-lines-(1)" transform="translate(0.000000, 3.000000)">
                        <polygon id="Shape" fill="#ECE7EA" fill-rule="nonzero" points="80 8.899375 80 74.6770312 0 74.6770312 0 8.899375 40 5.34375"></polygon>
                        <rect id="Rectangle-path" fill="#1B4145" fill-rule="nonzero" x="0" y="0.01046875" width="80" height="8.88890625"></rect>
                        <circle id="Oval" fill="#6FC5D6" fill-rule="nonzero" cx="68" cy="4.45484375" r="1.33328125"></circle>
                        <circle id="Oval" fill="#F14742" fill-rule="nonzero" cx="74.2221875" cy="4.45484375" r="1.33328125"></circle>
                        <circle id="Oval" fill="#6FC5D6" fill-rule="nonzero" cx="61.7778125" cy="4.45484375" r="1.33328125"></circle>
                        <g id="Group" transform="translate(9.218750, 19.062500)" fill-rule="nonzero" fill="#8B7E7F">
                            <path d="M60.1145312,9.836875 L1.44796875,9.836875 C0.71140625,9.836875 0.1146875,9.23984375 0.1146875,8.50359375 C0.1146875,7.76734375 0.7115625,7.1703125 1.44796875,7.1703125 L60.1146875,7.1703125 C60.85125,7.1703125 61.4479687,7.76734375 61.4479687,8.50359375 C61.4479687,9.23984375 60.8510937,9.836875 60.1145312,9.836875 Z" id="Shape"></path>
                            <path d="M60.1145312,2.725625 L1.44796875,2.725625 C0.71140625,2.725625 0.1146875,2.12859375 0.1146875,1.39234375 C0.1146875,0.65609375 0.7115625,0.0590625 1.44796875,0.0590625 L60.1146875,0.0590625 C60.85125,0.0590625 61.4479687,0.65609375 61.4479687,1.39234375 C61.4479687,2.12859375 60.8510937,2.725625 60.1145312,2.725625 Z" id="Shape"></path>
                            <path d="M27.225625,24.0590625 L1.44796875,24.0590625 C0.71140625,24.0590625 0.1146875,23.4620312 0.1146875,22.7257812 C0.1146875,21.9895312 0.7115625,21.3925 1.44796875,21.3925 L27.2257812,21.3925 C27.9623437,21.3925 28.5590625,21.9895312 28.5590625,22.7257812 C28.5590625,23.4620312 27.9621875,24.0590625 27.225625,24.0590625 Z" id="Shape"></path>
                            <path d="M27.225625,16.9479688 L1.44796875,16.9479688 C0.71140625,16.9479688 0.1146875,16.3509375 0.1146875,15.6146875 C0.1146875,14.8782813 0.7115625,14.2814063 1.44796875,14.2814063 L27.2257812,14.2814063 C27.9623437,14.2814063 28.5590625,14.8784375 28.5590625,15.6146875 C28.5590625,16.3509375 27.9621875,16.9479688 27.225625,16.9479688 Z" id="Shape"></path>
                            <path d="M27.225625,31.1701562 L1.44796875,31.1701562 C0.71140625,31.1701562 0.1146875,30.573125 0.1146875,29.836875 C0.1146875,29.100625 0.7115625,28.5035937 1.44796875,28.5035937 L27.2257812,28.5035937 C27.9623437,28.5035937 28.5590625,29.100625 28.5590625,29.836875 C28.5590625,30.573125 27.9621875,31.1701562 27.225625,31.1701562 Z" id="Shape"></path>
                            <path d="M27.225625,38.28125 L1.44796875,38.28125 C0.71140625,38.28125 0.1146875,37.6842187 0.1146875,36.9479688 C0.1146875,36.2117188 0.7115625,35.6146875 1.44796875,35.6146875 L27.2257812,35.6146875 C27.9623437,35.6146875 28.5590625,36.2117188 28.5590625,36.9479688 C28.5590625,37.6842187 27.9621875,38.28125 27.225625,38.28125 Z" id="Shape"></path>
                        </g>
                        <rect id="Rectangle-path" fill="#F14742" fill-rule="nonzero" x="43.555625" y="34.6770312" width="25.7778125" height="28.444375"></rect>
                        <path d="M36.444375,64.4548438 L10.6667187,64.4548438 C9.93015625,64.4548438 9.3334375,63.8578125 9.3334375,63.1215625 C9.3334375,62.3853125 9.9303125,61.7882812 10.6667187,61.7882812 L36.4445312,61.7882812 C37.1810938,61.7882812 37.7778125,62.3853125 37.7778125,63.1215625 C37.7778125,63.8578125 37.1809375,64.4548438 36.444375,64.4548438 Z" id="Shape" fill="#8B7E7F" fill-rule="nonzero"></path>
                    </g>
                </g>
            </g>
        </g>
    </g>
</svg>