<?xml version="1.0" encoding="UTF-8" standalone="no"?>
<svg width="80px" height="80px" viewBox="0 0 80 80" version="1.1" xmlns="http://www.w3.org/2000/svg" xmlns:xlink="http://www.w3.org/1999/xlink">
    <!-- Generator: Sketch 47.1 (45422) - http://www.bohemiancoding.com/sketch -->
    <title>Service ion</title>
    <desc>Created with Sketch.</desc>
    <defs></defs>
    <g id="Web-Designs" stroke="none" stroke-width="1" fill="none" fill-rule="evenodd">
        <g id="Services---DIGITAL-MARKETING" transform="translate(-1001.000000, -1246.000000)">
            <g id="types-/-tab-copy-8" transform="translate(889.000000, 1233.000000)">
                <g id="icon/video" transform="translate(112.000000, 13.000000)">
                    <g id="video-player">
                        <rect id="Rectangle-path" fill="#556080" fill-rule="nonzero" x="0.754716981" y="0" width="78.490566" height="80"></rect>
                        <polygon id="Shape" fill="#FFFFFF" fill-rule="nonzero" points="35.4716981 37.7358491 35.4716981 27.1003774 35.4716981 16.6037736 52.0754717 27.1698113"></polygon>
                        <rect id="Rectangle-path" fill="#424A60" fill-rule="nonzero" x="0.754716981" y="52.7411321" width="78.490566" height="27.2588679"></rect>
                        <path d="M70.1886792,67.9245283 L24.9056604,67.9245283 C24.0709434,67.9245283 23.3962264,67.2498113 23.3962264,66.4150943 C23.3962264,65.5803774 24.0709434,64.9056604 24.9056604,64.9056604 L70.1886792,64.9056604 C71.0233962,64.9056604 71.6981132,65.5803774 71.6981132,66.4150943 C71.6981132,67.2498113 71.0233962,67.9245283 70.1886792,67.9245283 Z" id="Shape" fill="#2A303D" fill-rule="nonzero"></path>
                        <path d="M9.81132075,72.4528302 C8.97660377,72.4528302 8.30188679,71.7781132 8.30188679,70.9433962 L8.30188679,61.8867925 C8.30188679,61.0520755 8.97660377,60.3773585 9.81132075,60.3773585 C10.6460377,60.3773585 11.3207547,61.0520755 11.3207547,61.8867925 L11.3207547,70.9433962 C11.3207547,71.7781132 10.6460377,72.4528302 9.81132075,72.4528302 Z" id="Shape" fill="#FFFFFF" fill-rule="nonzero"></path>
                        <path d="M15.8490566,72.4528302 C15.0143396,72.4528302 14.3396226,71.7781132 14.3396226,70.9433962 L14.3396226,61.8867925 C14.3396226,61.0520755 15.0143396,60.3773585 15.8490566,60.3773585 C16.6837736,60.3773585 17.3584906,61.0520755 17.3584906,61.8867925 L17.3584906,70.9433962 C17.3584906,71.7781132 16.6837736,72.4528302 15.8490566,72.4528302 Z" id="Shape" fill="#FFFFFF" fill-rule="nonzero"></path>
                        <path d="M32.4528302,64.9056604 L24.9056604,64.9056604 C24.0709434,64.9056604 23.3962264,65.5803774 23.3962264,66.4150943 C23.3962264,67.2498113 24.0709434,67.9245283 24.9056604,67.9245283 L32.4528302,67.9245283 L32.4528302,64.9056604 Z" id="Shape" fill="#DD352E" fill-rule="nonzero"></path>
                        <path d="M32.4528302,72.4528302 C31.6181132,72.4528302 30.9433962,71.7781132 30.9433962,70.9433962 L30.9433962,61.8867925 C30.9433962,61.0520755 31.6181132,60.3773585 32.4528302,60.3773585 C33.2875472,60.3773585 33.9622642,61.0520755 33.9622642,61.8867925 L33.9622642,70.9433962 C33.9622642,71.7781132 33.2875472,72.4528302 32.4528302,72.4528302 Z" id="Shape" fill="#FFFFFF" fill-rule="nonzero"></path>
                    </g>
                </g>
            </g>
        </g>
    </g>
</svg>