<?xml version="1.0" encoding="UTF-8" standalone="no"?>
<svg width="80px" height="80px" viewBox="0 0 80 80" version="1.1" xmlns="http://www.w3.org/2000/svg" xmlns:xlink="http://www.w3.org/1999/xlink">
    <!-- Generator: Sketch 47.1 (45422) - http://www.bohemiancoding.com/sketch -->
    <title>Service ion</title>
    <desc>Created with Sketch.</desc>
    <defs></defs>
    <g id="Web-Designs" stroke="none" stroke-width="1" fill="none" fill-rule="evenodd">
        <g id="Services---DIGITAL-MARKETING" transform="translate(-675.000000, -2179.000000)">
            <g id="types-/-tab-copy-12" transform="translate(578.000000, 2179.000000)">
                <g id="icon/targeting" transform="translate(97.000000, 0.000000)">
                    <g id="target-(1)">
                        <path d="M79.845259,39.9643028 C79.845259,40.6304382 79.845259,41.4629482 79.845259,42.1290837 C79.5121912,47.6242231 78.1800797,52.619761 76.0152988,57.2822311 C69.5211155,70.6036653 55.8666135,79.9286056 40.04749,79.9286056 C17.9007171,79.9286056 0.083187251,61.9447012 0.083187251,39.9643028 C0.083187251,17.8173705 17.9007171,0 40.04749,0 C62.0277291,0 79.845259,17.8173705 79.845259,39.9643028 Z" id="Shape" fill="#FF7058" fill-rule="nonzero"></path>
                        <circle id="Oval" fill="#FFFFFF" fill-rule="nonzero" cx="39.8809562" cy="39.9643028" r="31.6384064"></circle>
                        <circle id="Oval" fill="#FF7058" fill-rule="nonzero" cx="39.8809562" cy="39.9641434" r="23.4790438"></circle>
                        <circle id="Oval" fill="#FFFFFF" fill-rule="nonzero" cx="39.8809562" cy="39.9641434" r="15.1531474"></circle>
                        <circle id="Oval" fill="#FF7058" fill-rule="nonzero" cx="39.8809562" cy="39.9643028" r="6.827251"></circle>
                        <path d="M79.845259,42.1289243 C79.5121912,47.6240637 78.1800797,52.6196016 76.0152988,57.2820717 L70.187251,55.7834263 L68.5220717,50.121753 L39.3815139,42.2954582 C37.8828685,41.9623904 37.0501992,40.463745 37.5498008,38.9650996 C37.8828685,37.4664542 39.3815139,36.6337849 40.8801594,37.1333865 L69.8541833,44.9596813 L74.1835857,40.7968127 L79.845259,42.1289243 Z" id="Shape" fill="#334A5E" fill-rule="nonzero" opacity="0.2"></path>
                        <path d="M63.8594422,15.8191235 C62.8603984,14.8200797 61.0286853,14.8200797 60.0294821,15.8191235 L38.2157769,37.632988 C37.2167331,38.6320319 37.2167331,40.463745 38.2157769,41.4629482 L38.2157769,41.4629482 C39.2148207,42.461992 41.0465339,42.461992 42.0457371,41.4629482 L63.8596016,19.6490837 C64.8586454,18.6500398 64.8586454,16.8183267 63.8594422,15.8191235 Z" id="Shape" fill="#40596B" fill-rule="nonzero"></path>
                        <polygon id="Shape" fill="#84DBFF" fill-rule="nonzero" points="70.0207171 9.65800797 60.1961753 19.3160159 58.0313944 10.4906773 67.8559363 0.666135458"></polygon>
                        <polygon id="Shape" fill="#54C0EB" fill-rule="nonzero" points="69.1880478 21.4807968 78.8460558 11.8227888 70.0207171 9.65800797 60.1961753 19.3160159"></polygon>
                    </g>
                </g>
            </g>
        </g>
    </g>
</svg>